Stops
…
&\quad 0.01(\operatorname{race}_{\operatorname{White}} \times \operatorname{zone}_{\operatorname{E}}) - 0.01(\operatorname{race}_{\operatorname{White}} \times \operatorname{zone}_{\operatorname{F}})\ + \\
&\quad 0.01(\operatorname{race}_{\operatorname{White}} \times \operatorname{zone}_{\operatorname{G}}) + 0.01(\operatorname{race}_{\operatorname{White}} \times \operatorname{zone}_{\operatorname{H}})\ - \\
&\quad 0.03(\operatorname{race}_{\operatorname{White}} \times \operatorname{zone}_{\operatorname{I}}) - 0.02(\operatorname{race}_{\operatorname{White}} \times \operatorname{zone}_{\operatorname{J}})\ - \\
&\quad 0.04(\operatorname{race}_{\operatorname{White}} \times \operatorname{zone}_{\operatorname{K}}) - 0.01(\operatorname{race}_{\operatorname{White}} \times \operatorname{zone}_{\operatorname{L}})\ - \\
&\quad 0.04(\operatorname{race}_{\operatorname{White}} \times \operatorname{zone}_{\operatorname{M}}) - 0.06(\operatorname{race}_{\operatorname{White}} \times \operatorname{zone}_{\operatorname{N}})\ - \\
&\quad 0.01(\operatorname{race}_{\operatorname{White}} \times \operatorname{zone}_{\operatorname{O}}) + 0.01(\operatorname{race}_{\operatorname{White}} \times \operatorname{zone}_{\operatorname{P}})\ - \\
&\quad 0.05(\operatorname{race}_{\operatorname{White}} \times \operatorname{zone}_{\operatorname{Q}}) - 0.04(\operatorname{race}_{\operatorname{White}} \times \operatorname{zone}_{\operatorname{R}})\ - \\
&\quad 0.03(\operatorname{race}_{\operatorname{White}} \times \operatorname{zone}_{\operatorname{S}}) - 0.03(\operatorname{race}_{\operatorname{White}} \times \operatorname{zone}_{\operatorname{T}})\ + \\
&\quad 0.04(\operatorname{race}_{\operatorname{White}} \times \operatorname{zone}_{\operatorname{U}}) - 0.04(\operatorname{race}_{\operatorname{White}} \times \operatorname{zone}_{\operatorname{V}})\ - \\
&\quad 0.12(\operatorname{race}_{\operatorname{White}} \times \operatorname{zone}_{\operatorname{W}}) + 0.08(\operatorname{race}_{\operatorname{White}} \times \operatorname{zone}_{\operatorname{X}})\ + \\
&\quad 0(\operatorname{race}_{\operatorname{White}} \times \operatorname{zone}_{\operatorname{Y}})
\end{aligned}
\]

# A tibble: 51 × 7
   term        estimate std.error statistic  p.value conf.low conf.high
   <chr>          <dbl>     <dbl>     <dbl>    <dbl>    <dbl>     <dbl>
 1 (Intercept)  0.177     0.00346    51.3   0         0.171     0.184  
 2 sexMale      0.0614    0.00149    41.4   0         0.0585    0.0644 
 3 raceWhite   -0.0445    0.00634    -7.02  2.25e-12 -0.0570   -0.0321 
 4 zoneB        0.0146    0.00513     2.85  4.42e- 3  0.00455   0.0247 
 5 zoneC        0.00610   0.00426     1.43  1.52e- 1 -0.00225   0.0145 
 6 zoneD        0.0781    0.00418    18.7   6.20e-78  0.0699    0.0862 
 7 zoneE        0.00190   0.00465     0.409 6.82e- 1 -0.00721   0.0110 
 8 zoneF       -0.00271   0.00483    -0.561 5.75e- 1 -0.0122    0.00675
 9 zoneG        0.0309    0.00500     6.18  6.46e-10  0.0211    0.0407 
10 zoneH        0.0757    0.00479    15.8   3.42e-56  0.0663    0.0851 
# ℹ 41 more rows
…
